[
  {
    "name": "Pie",
    "price": 21.95,
    "imageUrl": "/images/pie.jpg",
    "article": 1,
    "color": "White"
  },
  {
    "name": "Lollilops",
    "price": 15,
    "imageUrl": "/images/lollilops.jpg",
    "article": 2,
    "color": "Pink"
  },
  {
    "name": "Cherry Cake",
    "price": 15.98,
    "imageUrl": "/images/cherry cake.jpg",
    "article": 3,
    "color": "Red"
  },
  {
    "name": "Choko cupcake",
    "price": 12.99,
    "imageUrl": "/images/Choko cupcake.jpg",
    "article": 4,
    "color": "Brown"
  },
  {
    "name": "Christmas cupcake",
    "price": 34,
    "imageUrl": "/images/Christmas cupcake.jpg",
    "article": 5,
    "color": "Blue"
  },
  {
    "name": "Christmas pie",
    "price": 7.99,
    "imageUrl": "/images/Christmas pie.jpg",
    "article": 6,
    "color": "White"
  },
  {
    "name": "Christmas tree",
    "price": 56.99,
    "imageUrl": "/images/Christmas tree.jpg",
    "article": 7,
    "color": "White"
  },
  {
    "name": "Cinnamon cake",
    "price": 5.99,
    "imageUrl": "/images/Cinnamon cake.jpg",
    "article": 8,
    "color": "Brown"
  },
  {
    "name": "Gingerbread cake",
    "price": 9.99,
    "imageUrl": "/images/Gingerbread cake.jpg",
    "article": 9,
    "color": "Brown"
  },
  {
    "name": "Gingerbread cookies",
    "price": 8.99,
    "imageUrl": "/images/Gingerbread cookies.jpg",
    "article": 10,
    "color": "Blue"
  },
  {
    "name": "Haribo",
    "price": 2.99,
    "imageUrl": "/images/Haribo.jpg",
    "article": 11,
    "color": "Red"
  },
  {
    "name": "M&M",
    "price": 2.99,
    "imageUrl": "/images/M&M.jpg",
    "article": 12,
    "color": "Pink"
  },
  {
    "name": "Orange cake",
    "price": 65.99,
    "imageUrl": "/images/Orange cake.jpg",
    "article": 13,
    "color": "Orange"
  },
  {
    "name": "Pink Macaroons",
    "price": 8.89,
    "imageUrl": "/images/Pink Macaroons.jpg",
    "article": 14,
    "color": "Pink"
  },
  {
    "name": "Star cake",
    "price": 45.99,
    "imageUrl": "/images/Star cake.jpg",
    "article": 15,
    "color": "Brown"
  },
  {
    "name": "Star cookies",
    "price": 7.99,
    "imageUrl": "/images/Star cookies.jpg",
    "article": 16,
    "color": "Brown"
  },
  {
    "name": "Strawberrieas cupcake",
    "price": 45.99,
    "imageUrl": "/images/Strawberrieas cupcake.jpg",
    "article": 17,
    "color": "Pink"
  },
  {
    "name": "Sugar candy",
    "price": 2.99,
    "imageUrl": "/images/Sugar candy.jpg",
    "article": 18,
    "color": "Red"
  },
  {
    "name": "Sugar stripes",
    "price": 6.99,
    "imageUrl": "/images/Sugar stripes.jpg",
    "article": 19,
    "color": "Red"
  },
  {
    "name": "White cupcake",
    "price": 4.66,
    "imageUrl": "/images/White cupcake.jpg",
    "article": 20,
    "color": "White"
  }
]